Journal (reproducible report)
…
#2.0 Import Files ----
# A good convention is to use the file name and suffix it with tbl for the data structure tibble
bikes_tbl      <- read_excel(path = "~/Documents/Github/Business Data Basics/DS_101/00_data/01_bike_sales/01_raw_data/bikes.xlsx")
orderlines_tbl <- read_excel("~/Documents/Github/Business Data Basics/DS_101/00_data/01_bike_sales/01_raw_data/orderlines.xlsx")

# Not necessary for this analysis, but for the sake of completeness
bikeshops_tbl  <- read_excel("~/Documents/Github/Business Data Basics/DS_101/00_data/01_bike_sales/01_raw_data/bikeshops.xlsx")

#3.0 Joining Data ----

left_join(orderlines_tbl, bikes_tbl, by = c("product.id" = "bike.id"))

## # A tibble: 15,644 x 15
##    ...1  order.id order.line order.date          customer.id product.id quantity
##    <chr>    <dbl>      <dbl> <dttm>                    <dbl>      <dbl>    <dbl>
##  1 1            1          1 2015-01-07 00:00:00           2       2681        1
##  2 2            1          2 2015-01-07 00:00:00           2       2411        1
##  3 3            2          1 2015-01-10 00:00:00          10       2629        1
##  4 4            2          2 2015-01-10 00:00:00          10       2137        1
##  5 5            3          1 2015-01-10 00:00:00           6       2367        1
##  6 6            3          2 2015-01-10 00:00:00           6       1973        1
##  7 7            3          3 2015-01-10 00:00:00           6       2422        1
##  8 8            3          4 2015-01-10 00:00:00           6       2655        1
##  9 9            3          5 2015-01-10 00:00:00           6       2247        1
## 10 10           4          1 2015-01-11 00:00:00          22       2408        1
## # … with 15,634 more rows, and 8 more variables: model <chr>, model.year <dbl>,
## #   frame.material <chr>, weight <dbl>, price <dbl>, category <chr>,
## #   gender <chr>, url <chr>
…
  # 4.4 Rename columns because we actually wanted underscores instead of the dots
  # (one at the time vs. multiple at once)
  rename(bikeshop = name) %>%
  set_names(names(.) %>% str_replace_all("\\.", "_"))

#Check location multiple features (State and city)
#bike_orderlines_wrangled_tbl$location

#Probably unecessary code but also helps to see just the location column
bike_orderlines_wrangled_tbl %>% 
  select(location) %>%
  filter(str_detect(location, "^Hamburg")) 

## # A tibble: 975 x 1
##    location        
##    <chr>           
##  1 Hamburg, Hamburg
##  2 Hamburg, Hamburg
##  3 Hamburg, Hamburg
##  4 Hamburg, Hamburg
##  5 Hamburg, Hamburg
##  6 Hamburg, Hamburg
##  7 Hamburg, Hamburg
##  8 Hamburg, Hamburg
##  9 Hamburg, Hamburg
## 10 Hamburg, Hamburg
## # … with 965 more rows
…
   # Group by and summarize year and state
   group_by(year, state) %>%
   summarise(sales = sum(total_price)) %>%
   ungroup() %>%
   
   # Format $ Text
   mutate(sales_text = scales::dollar(sales, big.mark = ".", 
                                      decimal.mark = ",", 
                                      prefix = "", 
                                      suffix = " €")) %>%
 arrange(desc(sales))
 
 sales_by_year_by_state_tbl

## # A tibble: 60 x 4
##     year state                       sales sales_text 
##    <dbl> <chr>                       <dbl> <chr>      
##  1  2019 " North Rhine-Westphalia" 5189507 5.189.507 €
##  2  2017 " North Rhine-Westphalia" 4671541 4.671.541 €
##  3  2018 " North Rhine-Westphalia" 4601681 4.601.681 €
##  4  2015 " North Rhine-Westphalia" 3735092 3.735.092 €
##  5  2016 " North Rhine-Westphalia" 3002792 3.002.792 €
##  6  2019 " Bremen"                 2808838 2.808.838 €
##  7  2017 " Bremen"                 2557145 2.557.145 €
##  8  2016 " Bremen"                 2057760 2.057.760 €
##  9  2018 " Bremen"                 1833844 1.833.844 €
## 10  2019 " Bavaria"                1730872 1.730.872 €
## # … with 50 more rows
…
